{
  "packageDirectories": [
    
      { "path": "force-app", "default": true},
      { "path" : "unpackaged" },
      { "path" : "utils" }
  ],
  "namespace": "",
  "sfdcLoginUrl": "https://login.salesforce.com",
  "sourceApiVersion": "47.0"
}